{
  "_class": "shapePath",
  "booleanOperation": -1,
  "do_objectID": "A3E2EA48-86C6-4F7F-93D6-02C70196BF1B",
  "edited": true,
  "exportOptions": {
    "_class": "exportOptions",
    "exportFormats": [
    ],
    "includedLayerIds": [
    ],
    "layerOptions": 0,
    "shouldTrim": false
  },
  "frame": {
    "_class": "rect",
    "constrainProportions": false,
    "height": 2061.000000000001,
    "width": 1,
    "x": 0,
    "y": 0
  },
  "isFlippedHorizontal": false,
  "isFlippedVertical": false,
  "isLocked": false,
  "isVisible": true,
  "layerListExpandedType": 0,
  "name": "Path",
  "nameIsFixed": false,
  "path": {
    "_class": "path",
    "isClosed": false,
    "pointRadiusBehaviour": 1,
    "points": [
      {
        "_class": "curvePoint",
        "cornerRadius": 0,
        "curveFrom": "{0.66666666666666663, 0.0018018018018018016}",
        "curveMode": 1,
        "curveTo": "{0.66666666666666663, 0.0018018018018018016}",
        "hasCurveFrom": false,
        "hasCurveTo": false,
        "point": "{0.5, 0.00090090090090090081}"
      },
      {
        "_class": "curvePoint",
        "cornerRadius": 0,
        "curveFrom": "{1, 0.0036036036036036032}",
        "curveMode": 1,
        "curveTo": "{1, 0.0036036036036036032}",
        "hasCurveFrom": false,
        "hasCurveTo": false,
        "point": "{0.50000000000001132, 0.99917877848962366}"
      }
    ]
  },
  "resizingConstraint": 63,
  "resizingType": 0,
  "rotation": 0,
  "shouldBreakMaskChain": false
}