{
  "_class": "group",
  "do_objectID": "5069DAA8-1A50-4421-98B5-DF7BC843E070",
  "exportOptions": {
    "_class": "exportOptions",
    "exportFormats": [
    ],
    "includedLayerIds": [
    ],
    "layerOptions": 0,
    "shouldTrim": false
  },
  "frame": {
    "_class": "rect",
    "constrainProportions": false,
    "height": 28,
    "width": 96,
    "x": 0.5,
    "y": 0
  },
  "hasClickThrough": false,
  "isFlippedHorizontal": false,
  "isFlippedVertical": false,
  "isLocked": false,
  "isVisible": true,
  "layerListExpandedType": 0,
  "layers": [
    {
      "class": "shapeGroup",
      "id": "A264B8BA-E4E0-4192-9E51-258E3227BB79"
    },
    {
      "class": "shapeGroup",
      "id": "05DF87C4-ED44-4E0E-B6C4-80AEFEACAD43"
    },
    {
      "class": "text",
      "id": "DE08933A-D768-4B5B-8E4D-E03C75B3792A"
    }
  ],
  "name": "global-components/tooltips/top",
  "nameIsFixed": false,
  "resizingConstraint": 63,
  "resizingType": 0,
  "rotation": 0,
  "shouldBreakMaskChain": false,
  "style": {
    "_class": "style",
    "endDecorationType": 0,
    "miterLimit": 10,
    "startDecorationType": 0
  }
}