{
  "_class": "shapeGroup",
  "clippingMaskMode": 0,
  "do_objectID": "3B42E2D7-83DC-4FAB-8CEB-131199337CB5",
  "exportOptions": {
    "_class": "exportOptions",
    "exportFormats": [
    ],
    "includedLayerIds": [
    ],
    "layerOptions": 0,
    "shouldTrim": false
  },
  "frame": {
    "_class": "rect",
    "constrainProportions": false,
    "height": 4,
    "width": 4.001398625665387,
    "x": 0.998601374334612,
    "y": 0
  },
  "hasClickThrough": false,
  "hasClippingMask": false,
  "isFlippedHorizontal": true,
  "isFlippedVertical": false,
  "isLocked": false,
  "isVisible": true,
  "layerListExpandedType": 0,
  "layers": [
    {
      "class": "rectangle",
      "id": "C7097B91-EA90-49FF-8D8C-782F312131AF"
    }
  ],
  "name": "Rectangle 5 Copy 11",
  "nameIsFixed": false,
  "resizingConstraint": 63,
  "resizingType": 0,
  "rotation": 0,
  "shouldBreakMaskChain": false,
  "style": {
    "sharedObjectID": "9CB928EF-78AC-4324-A09C-757116A899EA"
  },
  "windingRule": 1
}