{
  "_class": "group",
  "do_objectID": "9917C55F-D149-4745-9978-12708BF0314C",
  "exportOptions": {
    "_class": "exportOptions",
    "exportFormats": [
    ],
    "includedLayerIds": [
    ],
    "layerOptions": 0,
    "shouldTrim": false
  },
  "frame": {
    "_class": "rect",
    "constrainProportions": false,
    "height": 32,
    "width": 52,
    "x": 435,
    "y": 112
  },
  "hasClickThrough": false,
  "isFlippedHorizontal": false,
  "isFlippedVertical": false,
  "isLocked": false,
  "isVisible": true,
  "layerListExpandedType": 1,
  "layers": [
    {
      "class": "shapeGroup",
      "id": "DA55DC5B-ED76-46DB-A36D-847912F4B0A7"
    },
    {
      "class": "text",
      "id": "079D6E57-CA55-4FA7-B2EB-1C3E3918C45E"
    }
  ],
  "name": "global-components/buttons/variations/group/right",
  "nameIsFixed": false,
  "resizingConstraint": 63,
  "resizingType": 0,
  "rotation": 0,
  "shouldBreakMaskChain": false,
  "style": {
    "_class": "style",
    "endDecorationType": 0,
    "miterLimit": 10,
    "startDecorationType": 0
  }
}