{
  "_class": "shapeGroup",
  "clippingMaskMode": 0,
  "do_objectID": "97EBA0B7-BF76-453D-AEA5-C853A03CBB16",
  "exportOptions": {
    "_class": "exportOptions",
    "exportFormats": [
    ],
    "includedLayerIds": [
    ],
    "layerOptions": 0,
    "shouldTrim": false
  },
  "frame": {
    "_class": "rect",
    "constrainProportions": false,
    "height": 4,
    "width": 8,
    "x": 44,
    "y": 24
  },
  "hasClickThrough": false,
  "hasClippingMask": false,
  "isFlippedHorizontal": false,
  "isFlippedVertical": false,
  "isLocked": false,
  "isVisible": true,
  "layerListExpandedType": 1,
  "layers": [
    {
      "class": "triangle",
      "id": "E90D3F15-C4FB-4A79-8BA6-25352ACFA958"
    }
  ],
  "name": "Triangle",
  "nameIsFixed": false,
  "resizingConstraint": 37,
  "resizingType": 0,
  "rotation": 0,
  "shouldBreakMaskChain": false,
  "style": {
    "sharedObjectID": "FBAAE206-1B7D-4559-A64D-AF713EE8FE68"
  },
  "windingRule": 1
}